[
  {
    "name": "Macbook Pro 2021",
    "price": 1000,
    "imagePath": "https://content2.rozetka.com.ua/goods/images/big/144249973.jpg",
    "vendorCode": 554387,
    "color": "black"
  },
  {
    "name": "Lenovo IdeaTab",
    "price": 600,
    "imagePath": "https://content2.rozetka.com.ua/goods/images/big/144249973.jpg",
    "vendorCode": 233564,
    "color": "black"
  },
  {
    "name": "ASUS ExpertBook B1",
    "price": 550,
    "imagePath": "https://content2.rozetka.com.ua/goods/images/big/144249973.jpg",
    "vendorCode": 650993,
    "color": "blue"
  },
  {
    "name": "Acer Aspire 7",
    "price": 1100,
    "imagePath": "https://content2.rozetka.com.ua/goods/images/big/144249973.jpg",
    "vendorCode": 221398,
    "color": "dark blue"
  },
  {
    "name": "HP Pavilion Gaming",
    "price": 2000,
    "imagePath": "https://content2.rozetka.com.ua/goods/images/big/144249973.jpg",
    "vendorCode": 893773,
    "color": "white"
  },
  {
    "name": "CHUWI HeroBook Air",
    "price": 350,
    "imagePath": "https://content2.rozetka.com.ua/goods/images/big/144249973.jpg",
    "vendorCode": 321276,
    "color": "gold"
  },
  {
    "name": "YEPO 737i5",
    "price": 400,
    "imagePath": "https://content2.rozetka.com.ua/goods/images/big/144249973.jpg",
    "vendorCode": 211109,
    "color": "black"
  },
  {
    "name": "Dell Vostro 15",
    "price": 567,
    "imagePath": "https://content2.rozetka.com.ua/goods/images/big/144249973.jpg",
    "vendorCode": 674392,
    "color": "white"
  },
  {
    "name": "HP 255 G8",
    "price": 965,
    "imagePath": "https://content2.rozetka.com.ua/goods/images/big/144249973.jpg",
    "vendorCode": 322378,
    "color": "white"
  },
  {
    "name": "YEPO 737J12 PRO",
    "price": 599,
    "imagePath": "https://content2.rozetka.com.ua/goods/images/big/144249973.jpg",
    "vendorCode": 873234,
    "color": "gold"
  }
]
